/home/bijulalvs/IdeaProjects/LostAndFound/src/main/java/app/controllers/otpcontrollerMail.java
/home/bijulalvs/IdeaProjects/LostAndFound/src/main/java/app/services/UserService.java
/home/bijulalvs/IdeaProjects/LostAndFound/src/main/java/app/Application.java
/home/bijulalvs/IdeaProjects/LostAndFound/src/main/java/app/model/OtpSystem.java
/home/bijulalvs/IdeaProjects/LostAndFound/src/main/java/app/repository/UserRepository.java
/home/bijulalvs/IdeaProjects/LostAndFound/src/main/java/app/controllers/HomeController.java
/home/bijulalvs/IdeaProjects/LostAndFound/src/main/java/app/test.java
/home/bijulalvs/IdeaProjects/LostAndFound/src/main/java/app/controllers/UserController.java
/home/bijulalvs/IdeaProjects/LostAndFound/src/main/java/app/model/userclass.java
/home/bijulalvs/IdeaProjects/LostAndFound/src/main/java/app/controllers/otpcontrollerPhone.java
